﻿first_name            last_name      date_of_birth  gender country_name
----------------------------------------------------------------------------------------- ---------------------------------------------------------------------------------------------------------------------------------------------------------------------------------------------------------------------------------------------------------------- ------------- ------ ----------------------------------------------------------------------------------------------------------------------------------------------------------------------------------------------------------------------------------------------------------------
Niels Arden           Oplev          1961-03-26     M      Denmark
Steven                Berkoff        1937-08-03     M      England
David                 Fincher        1962-08-28     M      United States of America
Zach                  Galifianakis   1969-10-01     M      United States of America
Bradley               Cooper         1975-01-05     M      United States of America
Rooney                Mara           1985-04-17     F      United States of America
Noomi                 Rapace         1979-12-28     F      Sweden
Daniel                Craig          1968-03-02     M      England

(8 row(s) affected)

