﻿Name                 Surname    Display Name   Email
---------------------------------------------------------------------------------------------------------------------------------------------------------------------------------------------------------------------------------------------------------------- ---------------------------------------------------------------------------------------------------------------------------------------------------------------------------------------------------------------------------------------------------------------- ---------------------------------------------------------------------------------------------------------------------------------------------------------------------------------------------------------------------------------------------------------------- ----------------------------------------------------------------------------------------------------------------------------------------------------------------------------------------------------------------------------------------------------------------
Lisa                 Galea      lisag          lisag@gmail.com
Tony                 Borg       tonyb          tonyborg@gmail.com
Joe                  Borg       joeb           joeborg@gmail.com

(3 row(s) affected)

