﻿Review                              Comment                     Comment Author         Reply Comment                 Reply Author
---------------------------------------------------------------------------------------------------------------------------------------------------------------------------------------------------------------------------------------------------------------- ---------------------------------------------------------------------------------------------------------------------------------------------------------------------------------------------------------------------------------------------------------------- ---------------------------------------------------------------------------------------------------------------------------------------------------------------------------------------------------------------------------------------------------------------- ---------------------------------------------------------------------------------------------------------------------------------------------------------------------------------------------------------------------------------------------------------------- ----------------------------------------------------------------------------------------------------------------------------------------------------------------------------------------------------------------------------------------------------------------
Better than the first movie         I disagree                  joeb                   NULL                          NULL
Could not stop laughing             Me too                      joeb                   Even credits were funny       tonyb
Could not stop laughing             Even credits were funny     tonyb                  NULL                          NULL

(3 row(s) affected)

