﻿Year Of Birth Gender Number of Accounts Grouping
------------- ------ ------------------ -----------
1999          M      2                  0
1997          M      1                  0
2000          M      1                  0
2001          F      1                  0
2001          M      1                  0
2002          F      1                  0
NULL          M      5                  2
NULL          F      2                  2
NULL          NULL   7                  3

(9 row(s) affected)

